{
    "resource": {
        "/yida/status_updates": {
            "type": "diagnostic_msgs/DiagnosticArray",
            "queue_size": 16,
            "timeout": 4
        },
        "/robot_pose": {
            "type": "nav_msgs/Odometry",
            "queue_size": 256,
            "timeout": 0.5
        }
    },
    "scene": {
        "/AuxLocator": {
            "heartbeat": true
        },
	    "/resource_center": {
            "heartbeat": true
        },
        "/yd_status_manager": {
            "heartbeat": true
        },
	    "/yd_bg_task": {
            "heartbeat": true
        },
	    "/yd_motion_control": {
            "heartbeat": true
        },
	    "/visible_rtsp_to_h264_node": {
            "heartbeat": true
        },
        "/infrared_rtsp_to_h264_node": {
            "heartbeat": true
        },
	    "/camera_status_node": {
            "heartbeat": true
        },
        "/watch_detect": {
            "heartbeat": true
        },
        "/mon_websocket": {
            "supervising": true
        },
	    "/mon_velodyne": {
            "supervising": true
        }
    }
}
